Practica1/simulation/qsim/Practica1.msim.vcd
$comment
	File created using the following command:
		vcd file Practica1.msim.vcd -direction
$end
$date
	Tue Aug 20 16:54:38 2019
$end
$version
	ModelSim Version 10.5b
$end
$timescale
	1ps
$end

$scope module Practica1_vlg_vec_tst $end
$var reg 1 ! clk $end
$var reg 1 " reset $end
$var wire 1 # A $end
$var wire 1 $ B $end
$var wire 1 % C $end
$var wire 1 & D $end

$scope module i1 $end
$var wire 1 ' gnd $end
$var wire 1 ( vcc $end
$var wire 1 ) unknown $end
$var tri1 1 * devclrn $end
$var tri1 1 + devpor $end
$var tri1 1 , devoe $end
$var wire 1 - A~output_o $end
$var wire 1 . B~output_o $end
$var wire 1 / C~output_o $end
$var wire 1 0 D~output_o $end
$var wire 1 1 clk~input_o $end
$var wire 1 2 clk~inputclkctrl_outclk $end
$var wire 1 3 inst1|Equal0~2_combout $end
$var wire 1 4 inst1|Equal0~0_combout $end
$var wire 1 5 inst1|Equal0~1_combout $end
$var wire 1 6 inst1|Equal0~3_combout $end
$var wire 1 7 inst1|Equal0~4_combout $end
$var wire 1 8 inst1|Add0~51 $end
$var wire 1 9 inst1|Add0~52_combout $end
$var wire 1 : inst1|cuenta~1_combout $end
$var wire 1 ; inst1|Add0~53 $end
$var wire 1 < inst1|Add0~54_combout $end
$var wire 1 = inst1|Equal0~7_combout $end
$var wire 1 > inst1|Equal0~6_combout $end
$var wire 1 ? inst1|Equal0~5_combout $end
$var wire 1 @ inst1|Equal0~8_combout $end
$var wire 1 A inst1|Add0~0_combout $end
$var wire 1 B inst1|cuenta~0_combout $end
$var wire 1 C inst1|Add0~1 $end
$var wire 1 D inst1|Add0~2_combout $end
$var wire 1 E inst1|Add0~3 $end
$var wire 1 F inst1|Add0~4_combout $end
$var wire 1 G inst1|Add0~5 $end
$var wire 1 H inst1|Add0~6_combout $end
$var wire 1 I inst1|Add0~7 $end
$var wire 1 J inst1|Add0~8_combout $end
$var wire 1 K inst1|Add0~9 $end
$var wire 1 L inst1|Add0~10_combout $end
$var wire 1 M inst1|Add0~11 $end
$var wire 1 N inst1|Add0~12_combout $end
$var wire 1 O inst1|Add0~13 $end
$var wire 1 P inst1|Add0~14_combout $end
$var wire 1 Q inst1|Add0~15 $end
$var wire 1 R inst1|Add0~16_combout $end
$var wire 1 S inst1|Add0~17 $end
$var wire 1 T inst1|Add0~18_combout $end
$var wire 1 U inst1|Add0~19 $end
$var wire 1 V inst1|Add0~20_combout $end
$var wire 1 W inst1|Add0~21 $end
$var wire 1 X inst1|Add0~22_combout $end
$var wire 1 Y inst1|Add0~23 $end
$var wire 1 Z inst1|Add0~24_combout $end
$var wire 1 [ inst1|Add0~25 $end
$var wire 1 \ inst1|Add0~26_combout $end
$var wire 1 ] inst1|Add0~27 $end
$var wire 1 ^ inst1|Add0~28_combout $end
$var wire 1 _ inst1|Add0~29 $end
$var wire 1 ` inst1|Add0~30_combout $end
$var wire 1 a inst1|Add0~31 $end
$var wire 1 b inst1|Add0~32_combout $end
$var wire 1 c inst1|Add0~33 $end
$var wire 1 d inst1|Add0~34_combout $end
$var wire 1 e inst1|Add0~35 $end
$var wire 1 f inst1|Add0~36_combout $end
$var wire 1 g inst1|Add0~37 $end
$var wire 1 h inst1|Add0~38_combout $end
$var wire 1 i inst1|Add0~39 $end
$var wire 1 j inst1|Add0~40_combout $end
$var wire 1 k inst1|Add0~41 $end
$var wire 1 l inst1|Add0~42_combout $end
$var wire 1 m inst1|Add0~43 $end
$var wire 1 n inst1|Add0~44_combout $end
$var wire 1 o inst1|Add0~45 $end
$var wire 1 p inst1|Add0~46_combout $end
$var wire 1 q inst1|Add0~47 $end
$var wire 1 r inst1|Add0~48_combout $end
$var wire 1 s inst1|Add0~49 $end
$var wire 1 t inst1|Add0~50_combout $end
$var wire 1 u inst|26~0_combout $end
$var wire 1 v reset~input_o $end
$var wire 1 w inst|26~q $end
$var wire 1 x inst|5~combout $end
$var wire 1 y inst|25~0_combout $end
$var wire 1 z inst|25~q $end
$var wire 1 { inst|51~combout $end
$var wire 1 | inst|24~0_combout $end
$var wire 1 } inst|24~q $end
$var wire 1 ~ inst|21~combout $end
$var wire 1 !! inst|23~0_combout $end
$var wire 1 "! inst|23~q $end
$var wire 1 #! inst1|cuenta [27] $end
$var wire 1 $! inst1|cuenta [26] $end
$var wire 1 %! inst1|cuenta [25] $end
$var wire 1 &! inst1|cuenta [24] $end
$var wire 1 '! inst1|cuenta [23] $end
$var wire 1 (! inst1|cuenta [22] $end
$var wire 1 )! inst1|cuenta [21] $end
$var wire 1 *! inst1|cuenta [20] $end
$var wire 1 +! inst1|cuenta [19] $end
$var wire 1 ,! inst1|cuenta [18] $end
$var wire 1 -! inst1|cuenta [17] $end
$var wire 1 .! inst1|cuenta [16] $end
$var wire 1 /! inst1|cuenta [15] $end
$var wire 1 0! inst1|cuenta [14] $end
$var wire 1 1! inst1|cuenta [13] $end
$var wire 1 2! inst1|cuenta [12] $end
$var wire 1 3! inst1|cuenta [11] $end
$var wire 1 4! inst1|cuenta [10] $end
$var wire 1 5! inst1|cuenta [9] $end
$var wire 1 6! inst1|cuenta [8] $end
$var wire 1 7! inst1|cuenta [7] $end
$var wire 1 8! inst1|cuenta [6] $end
$var wire 1 9! inst1|cuenta [5] $end
$var wire 1 :! inst1|cuenta [4] $end
$var wire 1 ;! inst1|cuenta [3] $end
$var wire 1 <! inst1|cuenta [2] $end
$var wire 1 =! inst1|cuenta [1] $end
$var wire 1 >! inst1|cuenta [0] $end
$upscope $end
$upscope $end
$enddefinitions $end
#0
$dumpvars
0!
1"
0#
0$
0%
0&
0'
1(
x)
1*
1+
1,
0-
0.
0/
00
01
02
13
14
15
16
17
18
09
0:
0;
0<
0=
1>
1?
0@
1A
1B
0C
0D
1E
0F
0G
0H
1I
0J
0K
0L
1M
0N
0O
0P
1Q
0R
0S
0T
1U
0V
0W
0X
1Y
0Z
0[
0\
1]
0^
0_
0`
1a
0b
0c
0d
1e
0f
0g
0h
1i
0j
0k
0l
1m
0n
0o
0p
1q
0r
0s
0t
1u
1v
0w
1x
1y
0z
1{
1|
0}
1~
1!!
0"!
0>!
0=!
0<!
0;!
0:!
09!
08!
07!
06!
05!
04!
03!
02!
01!
00!
0/!
0.!
0-!
0,!
0+!
0*!
0)!
0(!
0'!
0&!
0%!
0$!
0#!
$end
#5000
1!
11
12
1>!
1C
0A
04
07
1D
0B
#10000
0!
01
02
#15000
1!
11
12
1=!
0>!
0E
0C
1A
0D
1E
1F
1D
1B
0F
#20000
0!
01
02
#25000
1!
11
12
1>!
1C
0A
0E
0D
0B
1F
#30000
0!
01
02
#35000
1!
11
12
1<!
0=!
0>!
1G
1E
0C
1A
0F
1D
0G
1H
1F
0D
1B
0H
#40000
0!
01
02
#45000
1!
11
12
1>!
1C
0A
1D
0B
#50000
0!
01
02
#55000
1!
11
12
1=!
0>!
0E
0C
1A
0D
1G
1E
0F
1D
1B
0G
1H
1F
0H
#60000
0!
01
02
#65000
1!
11
12
1>!
1C
0A
0E
0D
0B
1G
0F
1H
#70000
0!
01
02
#75000
1!
11
12
1;!
0<!
0=!
0>!
0I
0G
1E
0C
1A
0H
1F
1D
1I
1J
1H
0F
0D
1B
0J
#80000
0!
01
02
#85000
1!
11
12
1>!
1C
0A
1D
0B
#90000
0!
01
02
#95000
1!
11
12
1=!
0>!
0E
0C
1A
0D
1E
1F
1D
1B
0F
#100000
0!
01
02
#105000
1!
11
12
1>!
1C
0A
0E
0D
0B
1F
#110000
0!
01
02
#115000
1!
11
12
1<!
0=!
0>!
1G
1E
0C
1A
0F
1D
0I
0G
0H
1F
0D
1B
1I
1J
1H
0J
#120000
0!
01
02
#125000
1!
11
12
1>!
1C
0A
1D
0B
#130000
0!
01
02
#135000
1!
11
12
1=!
0>!
0E
0C
1A
0D
1G
1E
0F
1D
1B
0I
0G
0H
1F
1I
1J
1H
0J
#140000
0!
01
02
#145000
1!
11
12
1>!
1C
0A
0E
0D
0B
1G
0F
0I
0H
1J
#150000
0!
01
02
#155000
1!
11
12
1:!
0;!
0<!
0=!
0>!
1K
05
1I
14
0G
1E
0C
1A
0J
1H
1F
1D
0K
1L
1J
0H
0F
0D
1B
0L
#160000
0!
01
02
#165000
1!
11
12
1>!
1C
0A
04
1D
0B
#170000
0!
01
02
#175000
1!
11
12
1=!
0>!
0E
0C
1A
0D
1E
1F
1D
1B
0F
#180000
0!
01
02
#185000
1!
11
12
1>!
1C
0A
0E
0D
0B
1F
#190000
0!
01
02
#195000
1!
11
12
1<!
0=!
0>!
1G
1E
0C
1A
0F
1D
0G
1H
1F
0D
1B
0H
#200000
0!
01
02
#205000
1!
11
12
1>!
1C
0A
1D
0B
#210000
0!
01
02
#215000
1!
11
12
1=!
0>!
0E
0C
1A
0D
1G
1E
0F
1D
1B
0G
1H
1F
0H
#220000
0!
01
02
#225000
1!
11
12
1>!
1C
0A
0E
0D
0B
1G
0F
1H
#230000
0!
01
02
#235000
1!
11
12
1;!
0<!
0=!
0>!
0I
0G
1E
0C
1A
0H
1F
1D
1K
1I
0J
1H
0F
0D
1B
0K
1L
1J
0L
#240000
0!
01
02
#245000
1!
11
12
1>!
1C
0A
1D
0B
#250000
0!
01
02
#255000
1!
11
12
1=!
0>!
0E
0C
1A
0D
1E
1F
1D
1B
0F
#260000
0!
01
02
#265000
1!
11
12
1>!
1C
0A
0E
0D
0B
1F
#270000
0!
01
02
#275000
1!
11
12
1<!
0=!
0>!
1G
1E
0C
1A
0F
1D
0I
0G
0H
1F
0D
1B
1K
1I
0J
1H
0K
1L
1J
0L
#280000
0!
01
02
#285000
1!
11
12
1>!
1C
0A
1D
0B
#290000
0!
01
02
#295000
1!
11
12
1=!
0>!
0E
0C
1A
0D
1G
1E
0F
1D
1B
0I
0G
0H
1F
1K
1I
0J
1H
0K
1L
1J
0L
#300000
0!
01
02
#305000
1!
11
12
1>!
1C
0A
0E
0D
0B
1G
0F
0I
0H
1K
0J
1L
#310000
0!
01
02
#315000
1!
11
12
19!
0:!
0;!
0<!
0=!
0>!
0M
0K
1I
14
0G
1E
0C
1A
0L
1J
1H
1F
1D
1M
1N
1L
0J
0H
0F
0D
1B
0N
#320000
0!
01
02
#325000
1!
11
12
1>!
1C
0A
04
1D
0B
#330000
0!
01
02
#335000
1!
11
12
1=!
0>!
0E
0C
1A
0D
1E
1F
1D
1B
0F
#340000
0!
01
02
#345000
1!
11
12
1>!
1C
0A
0E
0D
0B
1F
#350000
0!
01
02
#355000
1!
11
12
1<!
0=!
0>!
1G
1E
0C
1A
0F
1D
0G
1H
1F
0D
1B
0H
#360000
0!
01
02
#365000
1!
11
12
1>!
1C
0A
1D
0B
#370000
0!
01
02
#375000
1!
11
12
1=!
0>!
0E
0C
1A
0D
1G
1E
0F
1D
1B
0G
1H
1F
0H
#380000
0!
01
02
#385000
1!
11
12
1>!
1C
0A
0E
0D
0B
1G
0F
1H
#390000
0!
01
02
#395000
1!
11
12
1;!
0<!
0=!
0>!
0I
0G
1E
0C
1A
0H
1F
1D
1I
1J
1H
0F
0D
1B
0J
#400000
0!
01
02
#405000
1!
11
12
1>!
1C
0A
1D
0B
#410000
0!
01
02
#415000
1!
11
12
1=!
0>!
0E
0C
1A
0D
1E
1F
1D
1B
0F
#420000
0!
01
02
#425000
1!
11
12
1>!
1C
0A
0E
0D
0B
1F
#430000
0!
01
02
#435000
1!
11
12
1<!
0=!
0>!
1G
1E
0C
1A
0F
1D
0I
0G
0H
1F
0D
1B
1I
1J
1H
0J
#440000
0!
01
02
#445000
1!
11
12
1>!
1C
0A
1D
0B
#450000
0!
01
02
#455000
1!
11
12
1=!
0>!
0E
0C
1A
0D
1G
1E
0F
1D
1B
0I
0G
0H
1F
1I
1J
1H
0J
#460000
0!
01
02
#465000
1!
11
12
1>!
1C
0A
0E
0D
0B
1G
0F
0I
0H
1J
#470000
0!
01
02
#475000
1!
11
12
1:!
0;!
0<!
0=!
0>!
1K
1I
14
0G
1E
0C
1A
0J
1H
1F
1D
0M
0K
0L
1J
0H
0F
0D
1B
1M
1N
1L
0N
#480000
0!
01
02
#485000
1!
11
12
1>!
1C
0A
04
1D
0B
#490000
0!
01
02
#495000
1!
11
12
1=!
0>!
0E
0C
1A
0D
1E
1F
1D
1B
0F
#500000
0!
01
02
#505000
1!
11
12
1>!
1C
0A
0E
0D
0B
1F
#510000
0!
01
02
#515000
1!
11
12
1<!
0=!
0>!
1G
1E
0C
1A
0F
1D
0G
1H
1F
0D
1B
0H
#520000
0!
01
02
#525000
1!
11
12
1>!
1C
0A
1D
0B
#530000
0!
01
02
#535000
1!
11
12
1=!
0>!
0E
0C
1A
0D
1G
1E
0F
1D
1B
0G
1H
1F
0H
#540000
0!
01
02
#545000
1!
11
12
1>!
1C
0A
0E
0D
0B
1G
0F
1H
#550000
0!
01
02
#555000
1!
11
12
1;!
0<!
0=!
0>!
0I
0G
1E
0C
1A
0H
1F
1D
1K
1I
0J
1H
0F
0D
1B
0M
0K
0L
1J
1M
1N
1L
0N
#560000
0!
01
02
#565000
1!
11
12
1>!
1C
0A
1D
0B
#570000
0!
01
02
#575000
1!
11
12
1=!
0>!
0E
0C
1A
0D
1E
1F
1D
1B
0F
#580000
0!
01
02
#585000
1!
11
12
1>!
1C
0A
0E
0D
0B
1F
#590000
0!
01
02
#595000
1!
11
12
1<!
0=!
0>!
1G
1E
0C
1A
0F
1D
0I
0G
0H
1F
0D
1B
1K
1I
0J
1H
0M
0K
0L
1J
1M
1N
1L
0N
#600000
0!
01
02
#605000
1!
11
12
1>!
1C
0A
1D
0B
#610000
0!
01
02
#615000
1!
11
12
1=!
0>!
0E
0C
1A
0D
1G
1E
0F
1D
1B
0I
0G
0H
1F
1K
1I
0J
1H
0M
0K
0L
1J
1M
1N
1L
0N
#620000
0!
01
02
#625000
1!
11
12
1>!
1C
0A
0E
0D
0B
1G
0F
0I
0H
1K
0J
0M
0L
1N
#630000
0!
01
02
#635000
1!
11
12
18!
09!
0:!
0;!
0<!
0=!
0>!
1O
1M
0K
1I
14
0G
1E
0C
1A
0N
1L
1J
1H
1F
1D
0O
1P
1N
0L
0J
0H
0F
0D
1B
0P
#640000
0!
01
02
#645000
1!
11
12
1>!
1C
0A
04
1D
0B
#650000
0!
01
02
#655000
1!
11
12
1=!
0>!
0E
0C
1A
0D
1E
1F
1D
1B
0F
#660000
0!
01
02
#665000
1!
11
12
1>!
1C
0A
0E
0D
0B
1F
#670000
0!
01
02
#675000
1!
11
12
1<!
0=!
0>!
1G
1E
0C
1A
0F
1D
0G
1H
1F
0D
1B
0H
#680000
0!
01
02
#685000
1!
11
12
1>!
1C
0A
1D
0B
#690000
0!
01
02
#695000
1!
11
12
1=!
0>!
0E
0C
1A
0D
1G
1E
0F
1D
1B
0G
1H
1F
0H
#700000
0!
01
02
#705000
1!
11
12
1>!
1C
0A
0E
0D
0B
1G
0F
1H
#710000
0!
01
02
#715000
1!
11
12
1;!
0<!
0=!
0>!
0I
0G
1E
0C
1A
0H
1F
1D
1I
1J
1H
0F
0D
1B
0J
#720000
0!
01
02
#725000
1!
11
12
1>!
1C
0A
1D
0B
#730000
0!
01
02
#735000
1!
11
12
1=!
0>!
0E
0C
1A
0D
1E
1F
1D
1B
0F
#740000
0!
01
02
#745000
1!
11
12
1>!
1C
0A
0E
0D
0B
1F
#750000
0!
01
02
#755000
1!
11
12
1<!
0=!
0>!
1G
1E
0C
1A
0F
1D
0I
0G
0H
1F
0D
1B
1I
1J
1H
0J
#760000
0!
01
02
#765000
1!
11
12
1>!
1C
0A
1D
0B
#770000
0!
01
02
#775000
1!
11
12
1=!
0>!
0E
0C
1A
0D
1G
1E
0F
1D
1B
0I
0G
0H
1F
1I
1J
1H
0J
#780000
0!
01
02
#785000
1!
11
12
1>!
1C
0A
0E
0D
0B
1G
0F
0I
0H
1J
#790000
0!
01
02
#795000
1!
11
12
1:!
0;!
0<!
0=!
0>!
1K
1I
14
0G
1E
0C
1A
0J
1H
1F
1D
0K
1L
1J
0H
0F
0D
1B
0L
#800000
0!
01
02
#805000
1!
11
12
1>!
1C
0A
04
1D
0B
#810000
0!
01
02
#815000
1!
11
12
1=!
0>!
0E
0C
1A
0D
1E
1F
1D
1B
0F
#820000
0!
01
02
#825000
1!
11
12
1>!
1C
0A
0E
0D
0B
1F
#830000
0!
01
02
#835000
1!
11
12
1<!
0=!
0>!
1G
1E
0C
1A
0F
1D
0G
1H
1F
0D
1B
0H
#840000
0!
01
02
#845000
1!
11
12
1>!
1C
0A
1D
0B
#850000
0!
01
02
#855000
1!
11
12
1=!
0>!
0E
0C
1A
0D
1G
1E
0F
1D
1B
0G
1H
1F
0H
#860000
0!
01
02
#865000
1!
11
12
1>!
1C
0A
0E
0D
0B
1G
0F
1H
#870000
0!
01
02
#875000
1!
11
12
1;!
0<!
0=!
0>!
0I
0G
1E
0C
1A
0H
1F
1D
1K
1I
0J
1H
0F
0D
1B
0K
1L
1J
0L
#880000
0!
01
02
#885000
1!
11
12
1>!
1C
0A
1D
0B
#890000
0!
01
02
#895000
1!
11
12
1=!
0>!
0E
0C
1A
0D
1E
1F
1D
1B
0F
#900000
0!
01
02
#905000
1!
11
12
1>!
1C
0A
0E
0D
0B
1F
#910000
0!
01
02
#915000
1!
11
12
1<!
0=!
0>!
1G
1E
0C
1A
0F
1D
0I
0G
0H
1F
0D
1B
1K
1I
0J
1H
0K
1L
1J
0L
#920000
0!
01
02
#925000
1!
11
12
1>!
1C
0A
1D
0B
#930000
0!
01
02
#935000
1!
11
12
1=!
0>!
0E
0C
1A
0D
1G
1E
0F
1D
1B
0I
0G
0H
1F
1K
1I
0J
1H
0K
1L
1J
0L
#940000
0!
01
02
#945000
1!
11
12
1>!
1C
0A
0E
0D
0B
1G
0F
0I
0H
1K
0J
1L
#950000
0!
01
02
#955000
1!
11
12
19!
0:!
0;!
0<!
0=!
0>!
0M
0K
1I
14
0G
1E
0C
1A
0L
1J
1H
1F
1D
1O
1M
0N
1L
0J
0H
0F
0D
1B
0O
1P
1N
0P
#960000
0!
01
02
#965000
1!
11
12
1>!
1C
0A
04
1D
0B
#970000
0!
01
02
#975000
1!
11
12
1=!
0>!
0E
0C
1A
0D
1E
1F
1D
1B
0F
#980000
0!
01
02
#985000
1!
11
12
1>!
1C
0A
0E
0D
0B
1F
#990000
0!
01
02
#995000
1!
11
12
1<!
0=!
0>!
1G
1E
0C
1A
0F
1D
0G
1H
1F
0D
1B
0H
